<svg width="156" height="83" viewBox="0 0 156 83" fill="none" xmlns="http://www.w3.org/2000/svg">
<path opacity="0.57" d="M17.1315 22.457L0 62.5949L19.8364 82.186V22.457H17.1315Z" fill="url(#paint0_linear)"/>
<path d="M19.9551 11.2285V65.2235H118.687C122.101 65.2235 125.252 63.3122 126.828 59.9674L155.712 11.2285H19.9551Z" fill="url(#paint1_linear)"/>
<path d="M114.75 62.596H0V0H143.897C146.786 0 148.886 3.34482 147.573 5.9729L122.628 57.3398C121.315 60.6847 118.164 62.596 114.75 62.596Z" fill="url(#paint2_linear)"/>
<path d="M78.2333 18.8V44H73.3013V23.804L68.3693 25.82V21.536L75.1013 18.8H78.2333ZM100.288 18.8V33.956H103.384V38.096H100.288V44H95.3561V38.096H81.1361V34.136L94.6001 18.8H100.288ZM86.8241 33.956H95.3561V24.272L86.8241 33.956Z" fill="white"/>
<defs>
<linearGradient id="paint0_linear" x1="37.581" y1="68.7021" x2="23.8438" y2="57.486" gradientUnits="userSpaceOnUse">
<stop stop-color="#C8206B"/>
<stop offset="1" stop-color="#7A3A91"/>
</linearGradient>
<linearGradient id="paint1_linear" x1="136.478" y1="-14.5269" x2="21.3475" y2="96.8949" gradientUnits="userSpaceOnUse">
<stop stop-color="#9E9E9E" stop-opacity="0"/>
<stop offset="1" stop-color="#9E9E9E"/>
</linearGradient>
<linearGradient id="paint2_linear" x1="20.5629" y1="-18.9871" x2="112.676" y2="88.2071" gradientUnits="userSpaceOnUse">
<stop stop-color="#C8206B"/>
<stop offset="1" stop-color="#7A3A91"/>
</linearGradient>
</defs>
</svg>
